STAT 133 – Exploratory Data Analysis
…
Shooting Guard (SG): Focused on scoring, specially from long range.

Small Forward (SF): Versatile player skilled in both offense and defense.

Power Forward (PF): Strong player who scores inside and rebounds.

Center (C): Tallest player, dominant near the rim, controls rebounds and block shots.

NBA Roster Data (season 2024-2025)

dat <- read_csv("all-teams-2025-roster.csv")
dat

# A tibble: 655 × 10
   number player      team  position height weight birth_date country experience
   <chr>  <chr>       <chr> <chr>     <dbl>  <dbl> <chr>      <chr>   <chr>     
 1 31     Jarrett Al… CLE   C            81    243 April 21,… US      7         
 2 21     Emoni Bates CLE   SF           81    202 January 2… US      1         
 3 10     Darius Gar… CLE   PG           73    192 January 2… US      5         
 4 8      Javonte Gr… CLE   SG           77    205 July 23, … US      5         
 5 12     De'Andre H… CLE   SF           79    221 December … US      5         
 6 2      Ty Jerome   CLE   SG           77    195 July 8, 1… US      5         
 7 3      Caris LeVe… CLE   SF           79    205 August 25… US      8         
 8 5      Sam Merrill CLE   SG           76    205 May 15, 1… US      4         
 9 45     Donovan Mi… CLE   SG           74    215 September… US      7         
10 4      Evan Mobley CLE   PF           83    215 June 18, … US      3         
# ℹ 645 more rows
# ℹ 1 more variable: college <chr>
…
